…
A data.frame for each page requested is returned inside a list. We can
then use `dplyr` to combine all pages together and extract the
information we are interested in:

``` r
posts_df <- 
  bind_rows(posts) %>% 
  as_tibble() %>% 
  select(created_utc, author, title, url, score, num_comments) %>% 
  mutate(created_utc = lubridate::as_datetime(created_utc))

posts_df
#> # A tibble: 200 x 6
#>    created_utc         author   title           url           score num_comments
#>    <dttm>              <chr>    <chr>           <chr>         <int>        <int>
#>  1 2020-10-10 15:17:57 thepart… "The Parttime … https://yout…     1            1
#>  2 2020-10-10 13:35:01 Illustr… "G’day, guys! … https://yout…     0            0
#>  3 2020-10-09 22:25:05 _perdom… "Nate Perdomo … https://yout…     6            1
#>  4 2020-10-09 21:16:57 dontsta… "dontstaylong … https://dont…     2            0
#>  5 2020-10-09 17:15:13 laikapr… "Logic Moon - … https://www.…     1            0
#>  6 2020-10-09 11:10:31 Aksetaka "Aksetaka - Th… https://akse…     1            1
#>  7 2020-10-09 09:26:32 BobChar… "Yarra | Ambie… https://yout…     2            1
#>  8 2020-10-08 21:01:13 Rolacruz "Rola Cruz - M… https://yout…     1            0
#>  9 2020-10-08 18:52:24 Hyloiri… "Anedonia Frag… https://hylo…     7            3
#> 10 2020-10-08 03:11:18 eternal… "\"For this pr… https://room…    12            0
#> # … with 190 more rows
```
